<svg width="161" height="160" viewBox="0 0 161 160" fill="none" xmlns="http://www.w3.org/2000/svg">
<path d="M75.6548 160C117.076 160 150.655 155.36 150.655 149.637C150.655 143.914 117.076 139.275 75.6548 139.275C34.2334 139.275 0.654785 143.914 0.654785 149.637C0.654785 155.36 34.2334 160 75.6548 160Z" fill="#DBDBDB"/>
<path d="M121.181 149.001H30.129C5.52308 149.001 9.47337 129.424 15.3849 108.879C21.2964 88.3339 30.0177 57.1772 52.0225 57.1772H99.3148C121.306 57.1772 130.055 88.32 135.952 108.879C141.85 129.438 145.8 149.001 121.181 149.001Z" fill="#FFC727"/>
<path opacity="0.1" d="M50.4924 75.4953C54.6561 75.4953 58.0314 72.138 58.0314 67.9967C58.0314 63.8553 54.6561 60.498 50.4924 60.498C46.3288 60.498 42.9535 63.8553 42.9535 67.9967C42.9535 72.138 46.3288 75.4953 50.4924 75.4953Z" fill="black"/>
<path opacity="0.1" d="M100.817 75.4953C104.981 75.4953 108.356 72.138 108.356 67.9967C108.356 63.8553 104.981 60.498 100.817 60.498C96.6534 60.498 93.2781 63.8553 93.2781 67.9967C93.2781 72.138 96.6534 75.4953 100.817 75.4953Z" fill="black"/>
<path d="M50.4925 73.0879C53.3194 73.0879 55.6111 70.8084 55.6111 67.9966C55.6111 65.1847 53.3194 62.9053 50.4925 62.9053C47.6655 62.9053 45.3738 65.1847 45.3738 67.9966C45.3738 70.8084 47.6655 73.0879 50.4925 73.0879Z" fill="#263238"/>
<path d="M100.817 73.0879C103.644 73.0879 105.936 70.8084 105.936 67.9966C105.936 65.1847 103.644 62.9053 100.817 62.9053C97.9899 62.9053 95.6982 65.1847 95.6982 67.9966C95.6982 70.8084 97.9899 73.0879 100.817 73.0879Z" fill="#263238"/>
<path d="M100.817 69.0897C100.053 69.0897 99.3212 68.7879 98.7812 68.2509C98.2412 67.7138 97.9379 66.9853 97.9379 66.2258C97.3766 57.1169 95.9373 48.0826 93.6398 39.2474C90.7467 28.5252 85.3915 15.7277 76.3364 15.7277C59.645 15.7277 53.3718 57.6619 53.3718 66.2258C53.3718 66.9853 53.0685 67.7138 52.5285 68.2509C51.9885 68.7879 51.2562 69.0897 50.4926 69.0897C49.7289 69.0897 48.9966 68.7879 48.4566 68.2509C47.9166 67.7138 47.6133 66.9853 47.6133 66.2258C47.6133 65.6724 51.1185 10 76.3364 10C100.803 10 103.696 65.6724 103.696 66.2258C103.698 66.6024 103.625 66.9756 103.481 67.3239C103.337 67.6722 103.125 67.9886 102.857 68.2549C102.589 68.5212 102.271 68.7321 101.921 68.8754C101.571 69.0187 101.196 69.0915 100.817 69.0897Z" fill="#FFC727"/>
<g clip-path="url(#clip0_781_7623)">
<path d="M160.453 17.5C160.453 26.865 152.862 34.4531 143.5 34.4531C134.138 34.4531 126.547 26.865 126.547 17.5C126.547 8.14044 134.138 0.546875 143.5 0.546875C152.862 0.546875 160.453 8.14044 160.453 17.5ZM143.5 20.918C141.763 20.918 140.355 22.3258 140.355 24.0625C140.355 25.7992 141.763 27.207 143.5 27.207C145.237 27.207 146.645 25.7992 146.645 24.0625C146.645 22.3258 145.237 20.918 143.5 20.918ZM140.515 9.61502L141.022 18.9119C141.045 19.3469 141.405 19.6875 141.841 19.6875H145.159C145.595 19.6875 145.955 19.3469 145.978 18.9119L146.485 9.61502C146.511 9.14512 146.137 8.75 145.666 8.75H141.334C140.863 8.75 140.489 9.14512 140.515 9.61502Z" fill="#FF7979"/>
</g>
<defs>
<clipPath id="clip0_781_7623">
<rect width="35" height="35" fill="white" transform="translate(126)"/>
</clipPath>
</defs>
</svg>
